2016-03-01_09:22:21 FHT_2d34 actuator: 0%
2016-03-01_09:24:18 FHT_2d34 actuator: 0%
2016-03-01_09:24:19 FHT_2d34 desired-temp: 18.0
2016-03-01_09:26:15 FHT_2d34 actuator: 0%
2016-03-01_09:28:12 FHT_2d34 actuator: 0%
2016-03-01_09:28:12 FHT_2d34 desired-temp: 18.0
2016-03-01_09:28:13 FHT_2d34 measured-temp: 23.4
2016-03-01_09:28:13 FHT_2d34 temperature: 23.4
2016-03-01_09:28:13 FHT_2d34 battery: ok
2016-03-01_09:28:13 FHT_2d34 lowtemp: ok
2016-03-01_09:28:13 FHT_2d34 window: closed
2016-03-01_09:28:13 FHT_2d34 windowsensor: ok
2016-03-01_09:28:13 FHT_2d34 warnings: none
2016-03-01_09:32:06 FHT_2d34 actuator: 0%
2016-03-01_09:34:03 FHT_2d34 actuator: 0%
2016-03-01_09:36:00 FHT_2d34 actuator: 0%
2016-03-01_09:37:57 FHT_2d34 actuator: 0%
2016-03-01_09:39:54 FHT_2d34 actuator: 0%
2016-03-01_09:39:54 FHT_2d34 desired-temp: 14.5
2016-03-01_09:41:51 FHT_2d34 actuator: 0%
2016-03-01_09:41:52 FHT_2d34 desired-temp: 27.0
2016-03-01_09:43:48 FHT_2d34 actuator: 42%
2016-03-01_09:45:45 FHT_2d34 actuator: 42%
2016-03-01_09:49:39 FHT_2d34 actuator: 0%
2016-03-01_09:49:40 FHT_2d34 desired-temp: 27.0
2016-03-01_09:51:36 FHT_2d34 actuator: 33%
2016-03-01_09:53:33 FHT_2d34 actuator: 33%
2016-03-01_09:57:27 FHT_2d34 actuator: 33%
2016-03-01_09:59:25 FHT_2d34 actuator: 33%
